^C:\USERS\USER\SOURCE\REPOS\DMITRY__POPOV\CONSOLEAPPLICATION10\CONSOLEAPPLICATION10\STDAFX.CPP
C:\USERS\USER\SOURCE\REPOS\DMITRY__POPOV\CONSOLEAPPLICATION10\CONSOLEAPPLICATION10\DEBUG\SNAKE.PCH
C:\USERS\USER\SOURCE\REPOS\DMITRY__POPOV\CONSOLEAPPLICATION10\CONSOLEAPPLICATION10\DEBUG\VC140.PDB
C:\USERS\USER\SOURCE\REPOS\DMITRY__POPOV\CONSOLEAPPLICATION10\CONSOLEAPPLICATION10\DEBUG\VC140.IDB
C:\USERS\USER\SOURCE\REPOS\DMITRY__POPOV\CONSOLEAPPLICATION10\CONSOLEAPPLICATION10\DEBUG\STDAFX.OBJ
^C:\USERS\USER\SOURCE\REPOS\DMITRY__POPOV\CONSOLEAPPLICATION10\CONSOLEAPPLICATION10\CONSOLEAPPLICATION10.CPP|C:\USERS\USER\SOURCE\REPOS\DMITRY__POPOV\CONSOLEAPPLICATION10\CONSOLEAPPLICATION10\FIELD.CPP|C:\USERS\USER\SOURCE\REPOS\DMITRY__POPOV\CONSOLEAPPLICATION10\CONSOLEAPPLICATION10\SIZE.CPP|C:\USERS\USER\SOURCE\REPOS\DMITRY__POPOV\CONSOLEAPPLICATION10\CONSOLEAPPLICATION10\SNAKE.CPP
C:\USERS\USER\SOURCE\REPOS\DMITRY__POPOV\CONSOLEAPPLICATION10\CONSOLEAPPLICATION10\DEBUG\VC140.PDB
C:\USERS\USER\SOURCE\REPOS\DMITRY__POPOV\CONSOLEAPPLICATION10\CONSOLEAPPLICATION10\DEBUG\VC140.IDB
C:\USERS\USER\SOURCE\REPOS\DMITRY__POPOV\CONSOLEAPPLICATION10\CONSOLEAPPLICATION10\DEBUG\FIELD.OBJ
^C:\USERS\USER\SOURCE\REPOS\DMITRY__POPOV\CONSOLEAPPLICATION10\CONSOLEAPPLICATION10\CONSOLEAPPLICATION10.CPP
C:\USERS\USER\SOURCE\REPOS\DMITRY__POPOV\CONSOLEAPPLICATION10\CONSOLEAPPLICATION10\DEBUG\VC140.PDB
C:\USERS\USER\SOURCE\REPOS\DMITRY__POPOV\CONSOLEAPPLICATION10\CONSOLEAPPLICATION10\DEBUG\VC140.IDB
C:\USERS\USER\SOURCE\REPOS\DMITRY__POPOV\CONSOLEAPPLICATION10\CONSOLEAPPLICATION10\DEBUG\CONSOLEAPPLICATION10.OBJ
^C:\USERS\USER\SOURCE\REPOS\DMITRY__POPOV\CONSOLEAPPLICATION10\CONSOLEAPPLICATION10\FIELD.CPP
C:\USERS\USER\SOURCE\REPOS\DMITRY__POPOV\CONSOLEAPPLICATION10\CONSOLEAPPLICATION10\DEBUG\VC140.PDB
^C:\USERS\USER\SOURCE\REPOS\DMITRY__POPOV\CONSOLEAPPLICATION10\CONSOLEAPPLICATION10\SIZE.CPP
C:\USERS\USER\SOURCE\REPOS\DMITRY__POPOV\CONSOLEAPPLICATION10\CONSOLEAPPLICATION10\DEBUG\VC140.PDB
^C:\USERS\USER\SOURCE\REPOS\DMITRY__POPOV\CONSOLEAPPLICATION10\CONSOLEAPPLICATION10\SNAKE.CPP
C:\USERS\USER\SOURCE\REPOS\DMITRY__POPOV\CONSOLEAPPLICATION10\CONSOLEAPPLICATION10\DEBUG\VC140.PDB
^C:\USERS\USER\SOURCE\REPOS\DMITRY__POPOV\CONSOLEAPPLICATION10\CONSOLEAPPLICATION10\CONSOLEAPPLICATION10.CPP|C:\USERS\USER\SOURCE\REPOS\DMITRY__POPOV\CONSOLEAPPLICATION10\CONSOLEAPPLICATION10\SIZE.CPP|C:\USERS\USER\SOURCE\REPOS\DMITRY__POPOV\CONSOLEAPPLICATION10\CONSOLEAPPLICATION10\SNAKE.CPP
C:\USERS\USER\SOURCE\REPOS\DMITRY__POPOV\CONSOLEAPPLICATION10\CONSOLEAPPLICATION10\DEBUG\VC140.PDB
C:\USERS\USER\SOURCE\REPOS\DMITRY__POPOV\CONSOLEAPPLICATION10\CONSOLEAPPLICATION10\DEBUG\VC140.IDB
C:\USERS\USER\SOURCE\REPOS\DMITRY__POPOV\CONSOLEAPPLICATION10\CONSOLEAPPLICATION10\DEBUG\SNAKE.OBJ
^C:\USERS\USER\SOURCE\REPOS\DMITRY__POPOV\CONSOLEAPPLICATION10\CONSOLEAPPLICATION10\CONSOLEAPPLICATION10.CPP|C:\USERS\USER\SOURCE\REPOS\DMITRY__POPOV\CONSOLEAPPLICATION10\CONSOLEAPPLICATION10\SIZE.CPP
C:\USERS\USER\SOURCE\REPOS\DMITRY__POPOV\CONSOLEAPPLICATION10\CONSOLEAPPLICATION10\DEBUG\VC140.PDB
C:\USERS\USER\SOURCE\REPOS\DMITRY__POPOV\CONSOLEAPPLICATION10\CONSOLEAPPLICATION10\DEBUG\VC140.IDB
C:\USERS\USER\SOURCE\REPOS\DMITRY__POPOV\CONSOLEAPPLICATION10\CONSOLEAPPLICATION10\DEBUG\SIZE.OBJ
